,date,city,rent,product
0,2018-01-01,Mardin,14,1535
1,2018-01-02,Van,11,1900
2,2018-01-03,Edirne,17,1539
3,2018-01-04,Hatay,4,1378
4,2018-01-05,Kars,7,1662
5,2018-01-06,Gaziantep,6,1591
6,2018-01-07,Malatya,6,1843
7,2018-01-08,Burdur,8,1115
8,2018-01-09,Karaman,14,1159
9,2018-01-10,Kilis,9,1677
10,2018-01-11,Bayburt,14,1594
11,2018-01-12,Hakkari,11,1654
12,2018-01-13,Amasya,13,1084
13,2018-01-14,Karabük,7,1101
14,2018-01-15,İstanbul,13,1748
15,2018-01-16,Elazığ,4,1297
16,2018-01-17,Antalya,11,1845
17,2018-01-18,Düzce,1,1161
18,2018-01-19,Tunceli,12,1837
19,2018-01-20,Osmaniye,10,1812
20,2018-01-21,Düzce,2,1005
21,2018-01-22,Manisa,17,1868
22,2018-01-23,Gümüşhane,17,1503
23,2018-01-24,Amasya,12,1926
24,2018-01-25,Hatay,11,1404
25,2018-01-26,Uşak,6,1016
26,2018-01-27,Niğde,7,1150
27,2018-01-28,Bayburt,1,1978
28,2018-01-29,Tokat,16,1390
29,2018-01-30,Çorum,10,1077
30,2018-01-31,Iğdır,7,1890
31,2018-02-01,Kilis,14,1001
32,2018-02-02,Amasya,2,1068
33,2018-02-03,Erzincan,13,1803
34,2018-02-04,Eskişehir,11,1068
35,2018-02-05,Trabzon,16,1516
36,2018-02-06,Zonguldak,6,1751
37,2018-02-07,Hatay,7,1700
38,2018-02-08,Edirne,9,1760
39,2018-02-09,Zonguldak,5,1982
40,2018-02-10,Kırşehir,3,1316
41,2018-02-11,Şırnak,11,1523
42,2018-02-12,Çankırı,9,1135
43,2018-02-13,Ankara,12,1976
44,2018-02-14,Manisa,4,1053
45,2018-02-15,Konya,5,1443
46,2018-02-16,Sinop,10,1727
47,2018-02-17,Kahramanmaraş,13,1887
48,2018-02-18,Aydın,14,1792
49,2018-02-19,Artvin,15,1796
50,2018-02-20,Kars,12,1425
51,2018-02-21,Van,4,1204
52,2018-02-22,Tekirdağ,17,1084
53,2018-02-23,Artvin,7,1696
54,2018-02-24,Batman,10,1252
55,2018-02-25,Hakkari,16,1136
56,2018-02-26,Edirne,5,1617
57,2018-02-27,Bursa,11,1762
58,2018-02-28,Isparta,6,1950
59,2018-03-01,Amasya,7,1263
60,2018-03-02,Giresun,8,1042
61,2018-03-03,Osmaniye,8,1017
62,2018-03-04,Bilecik,16,1100
63,2018-03-05,Kırşehir,7,1461
64,2018-03-06,Batman,12,1202
65,2018-03-07,Adana,2,1617
66,2018-03-08,Ordu,16,1019
67,2018-03-09,Kars,7,1830
68,2018-03-10,Batman,5,1017
69,2018-03-11,Kocaeli,12,1367
70,2018-03-12,Adana,2,1864
71,2018-03-13,Bilecik,4,1328
72,2018-03-14,Erzurum,4,1252
73,2018-03-15,Şırnak,8,1931
74,2018-03-16,Aksaray,14,1874
75,2018-03-17,Giresun,14,1102
76,2018-03-18,Konya,4,1066
77,2018-03-19,Bilecik,4,1772
78,2018-03-20,Gümüşhane,11,1603
79,2018-03-21,Şırnak,12,1181
80,2018-03-22,Eskişehir,3,1961
81,2018-03-23,Antalya,10,1558
82,2018-03-24,Yalova,7,1528
83,2018-03-25,Hatay,3,1081
84,2018-03-26,Bitlis,9,1416
85,2018-03-27,İstanbul,17,1723
86,2018-03-28,Malatya,13,1357
87,2018-03-29,Diyarbakır,3,1037
88,2018-03-30,Erzurum,3,1366
89,2018-03-31,Bartın,17,1234
90,2018-04-01,Ankara,1,1328
91,2018-04-02,Muş,3,1102
92,2018-04-03,Kilis,15,1797
93,2018-04-04,Mardin,8,1812
94,2018-04-05,Diyarbakır,2,1845
95,2018-04-06,Adıyaman,16,1885
96,2018-04-07,Kilis,3,1059
97,2018-04-08,Kayseri,5,1398
98,2018-04-09,Tekirdağ,11,1817
99,2018-04-10,Elazığ,17,1923
100,2018-04-11,Diyarbakır,5,1490
101,2018-04-12,Manisa,8,1468
102,2018-04-13,Tunceli,13,1273
103,2018-04-14,Kilis,12,1504
104,2018-04-15,Trabzon,2,1513
105,2018-04-16,Uşak,7,1946
106,2018-04-17,Düzce,6,1149
107,2018-04-18,Iğdır,2,1761
108,2018-04-19,Hatay,10,1449
109,2018-04-20,Sivas,13,1132
110,2018-04-21,Çorum,1,1946
111,2018-04-22,Aksaray,12,1611
112,2018-04-23,Iğdır,11,1520
113,2018-04-24,Rize,16,1525
114,2018-04-25,Bursa,14,1725
115,2018-04-26,Ordu,6,1963
116,2018-04-27,Batman,3,1140
117,2018-04-28,Ardahan,9,1248
118,2018-04-29,Iğdır,7,1016
119,2018-04-30,Amasya,2,1302
120,2018-05-01,Kütahya,15,1435
121,2018-05-02,Afyon,5,1363
122,2018-05-03,Kırşehir,7,1891
123,2018-05-04,Burdur,3,1815
124,2018-05-05,Aydın,10,1650
125,2018-05-06,Yalova,3,1034
126,2018-05-07,Giresun,3,1563
127,2018-05-08,Gümüşhane,5,1075
128,2018-05-09,Bolu,4,1481
129,2018-05-10,Antalya,16,1407
130,2018-05-11,Niğde,1,1736
131,2018-05-12,Denizli,2,1878
132,2018-05-13,Tunceli,1,1793
133,2018-05-14,Çorum,17,1724
134,2018-05-15,Elazığ,3,1586
135,2018-05-16,İçel (Mersin),2,1698
136,2018-05-17,Ağrı,5,1745
137,2018-05-18,Eskişehir,4,1470
138,2018-05-19,Kilis,8,1812
139,2018-05-20,Çankırı,11,1506
140,2018-05-21,Bursa,15,1872
141,2018-05-22,Kırıkkale,12,1793
142,2018-05-23,Eskişehir,6,1581
143,2018-05-24,Amasya,9,1075
144,2018-05-25,Siirt,13,1225
145,2018-05-26,Ardahan,12,1199
146,2018-05-27,Nevşehir,9,1030
147,2018-05-28,Samsun,2,1840
148,2018-05-29,Çankırı,1,1110
149,2018-05-30,Erzincan,10,1959
150,2018-05-31,Afyon,7,1504
151,2018-06-01,Ankara,11,1630
152,2018-06-02,Adana,5,1854
153,2018-06-03,Diyarbakır,7,1468
154,2018-06-04,Hakkari,13,1708
155,2018-06-05,Elazığ,11,1428
156,2018-06-06,İçel (Mersin),7,1686
157,2018-06-07,Tunceli,8,1109
158,2018-06-08,Denizli,14,1396
159,2018-06-09,Çanakkale,17,1155
160,2018-06-10,Manisa,1,1174
161,2018-06-11,Siirt,6,1370
162,2018-06-12,Kırklareli,10,1644
163,2018-06-13,Ordu,6,1022
164,2018-06-14,İstanbul,4,1768
165,2018-06-15,İçel (Mersin),11,1883
166,2018-06-16,Niğde,7,1766
167,2018-06-17,Hatay,2,1691
168,2018-06-18,Manisa,16,1807
169,2018-06-19,Şırnak,11,1305
170,2018-06-20,Bitlis,11,1797
171,2018-06-21,Bartın,8,1441
172,2018-06-22,Afyon,2,1281
173,2018-06-23,Isparta,8,1279
174,2018-06-24,Ankara,11,1552
175,2018-06-25,Uşak,8,1349
176,2018-06-26,Hatay,16,1606
177,2018-06-27,Kütahya,16,1048
178,2018-06-28,Kahramanmaraş,17,1856
179,2018-06-29,Malatya,11,1546
180,2018-06-30,Afyon,8,1335
181,2018-07-01,İzmir,9,1685
182,2018-07-02,Konya,11,1957
183,2018-07-03,Sivas,5,1692
184,2018-07-04,Tunceli,8,1428
185,2018-07-05,Kayseri,11,1907
186,2018-07-06,Bingöl,11,1031
187,2018-07-07,Şanlıurfa,5,1155
188,2018-07-08,Iğdır,1,1062
189,2018-07-09,Bursa,9,1321
190,2018-07-10,Van,9,1617
191,2018-07-11,Sinop,9,1968
192,2018-07-12,Bolu,4,1857
193,2018-07-13,Kocaeli,14,1717
194,2018-07-14,Bingöl,16,1189
195,2018-07-15,Erzurum,14,1051
196,2018-07-16,Burdur,5,1476
197,2018-07-17,Adana,8,1921
198,2018-07-18,Ağrı,1,1186
199,2018-07-19,Aksaray,17,1285
200,2018-07-20,Bayburt,9,1724
201,2018-07-21,Afyon,1,1928
202,2018-07-22,Muş,17,1509
203,2018-07-23,Nevşehir,8,1265
204,2018-07-24,Tekirdağ,13,1265
205,2018-07-25,Ardahan,8,1884
206,2018-07-26,Balıkesir,10,1693
207,2018-07-27,Edirne,4,1191
208,2018-07-28,Iğdır,3,1426
209,2018-07-29,Nevşehir,12,1512
210,2018-07-30,Batman,16,1744
211,2018-07-31,Giresun,12,1125
212,2018-08-01,Denizli,17,1474
213,2018-08-02,Erzincan,12,1112
214,2018-08-03,Bingöl,5,1007
215,2018-08-04,Muş,2,1419
216,2018-08-05,Ordu,13,1414
217,2018-08-06,Sakarya,13,1649
218,2018-08-07,Ankara,7,1105
219,2018-08-08,Çankırı,2,1427
220,2018-08-09,Bursa,5,1605
221,2018-08-10,Erzincan,10,1088
222,2018-08-11,İzmir,8,1534
223,2018-08-12,Kırşehir,17,1733
224,2018-08-13,Artvin,16,1426
225,2018-08-14,Rize,11,1598
226,2018-08-15,Bayburt,1,1606
227,2018-08-16,Kırklareli,2,1396
228,2018-08-17,Ordu,10,1331
229,2018-08-18,Yalova,5,1251
230,2018-08-19,Çorum,4,1605
231,2018-08-20,Kilis,10,1704
232,2018-08-21,Burdur,11,1771
233,2018-08-22,Kars,15,1620
234,2018-08-23,Hakkari,7,1501
235,2018-08-24,Trabzon,4,1570
236,2018-08-25,Bartın,4,1289
237,2018-08-26,Hakkari,6,1440
238,2018-08-27,Çanakkale,6,1412
239,2018-08-28,Karabük,4,1912
240,2018-08-29,Diyarbakır,6,1602
241,2018-08-30,Şırnak,15,1596
242,2018-08-31,Bartın,5,1863
243,2018-09-01,Kilis,1,1520
244,2018-09-02,Erzurum,4,1125
245,2018-09-03,Ardahan,16,1615
246,2018-09-04,Aydın,8,1348
247,2018-09-05,Aksaray,11,1190
248,2018-09-06,Kars,11,1839
249,2018-09-07,Bayburt,2,1723
250,2018-09-08,Denizli,4,1332
251,2018-09-09,Şanlıurfa,1,1894
252,2018-09-10,Muş,7,1553
253,2018-09-11,Osmaniye,1,1718
254,2018-09-12,Muğla,4,1826
255,2018-09-13,Çorum,15,1388
256,2018-09-14,Zonguldak,15,1172
257,2018-09-15,Sivas,7,1968
258,2018-09-16,Ankara,3,1313
259,2018-09-17,Gümüşhane,2,1906
260,2018-09-18,Afyon,12,1770
261,2018-09-19,Batman,16,1417
262,2018-09-20,Muş,10,1341
263,2018-09-21,Antalya,7,1041
264,2018-09-22,Kırşehir,13,1069
265,2018-09-23,Sinop,13,1098
266,2018-09-24,Amasya,17,1391
267,2018-09-25,İçel (Mersin),17,1276
268,2018-09-26,Bursa,3,1987
269,2018-09-27,Bingöl,11,1822
270,2018-09-28,Tekirdağ,6,1943
271,2018-09-29,Bilecik,16,1541
272,2018-09-30,Konya,5,1558
273,2018-10-01,İstanbul,10,1545
274,2018-10-02,Kırıkkale,4,1622
275,2018-10-03,Amasya,16,1398
276,2018-10-04,Samsun,5,1104
277,2018-10-05,Gaziantep,16,1455
278,2018-10-06,Osmaniye,7,1512
279,2018-10-07,Bolu,7,1202
280,2018-10-08,Kırıkkale,15,1169
281,2018-10-09,Trabzon,7,1602
282,2018-10-10,Gaziantep,1,1360
283,2018-10-11,Çorum,6,1714
284,2018-10-12,Aksaray,12,1149
285,2018-10-13,Kars,5,1174
286,2018-10-14,Amasya,9,1138
287,2018-10-15,Yozgat,6,1085
288,2018-10-16,Kırıkkale,2,1169
289,2018-10-17,Ordu,17,1681
290,2018-10-18,Malatya,3,1420
291,2018-10-19,İzmir,9,1101
292,2018-10-20,Bursa,6,1144
293,2018-10-21,Erzincan,1,1023
294,2018-10-22,Uşak,10,1799
295,2018-10-23,Iğdır,17,1142
296,2018-10-24,Kocaeli,5,1368
297,2018-10-25,Uşak,12,1792
298,2018-10-26,Kırklareli,7,1544
299,2018-10-27,Denizli,4,1581
300,2018-10-28,Rize,3,1178
301,2018-10-29,Erzurum,7,1145
302,2018-10-30,Erzincan,16,1414
303,2018-10-31,Karabük,17,1747
304,2018-11-01,Elazığ,4,1731
305,2018-11-02,Siirt,11,1670
306,2018-11-03,Aksaray,14,1262
307,2018-11-04,Kırıkkale,2,1192
308,2018-11-05,Batman,2,1587
309,2018-11-06,Zonguldak,9,1562
310,2018-11-07,Amasya,3,1740
311,2018-11-08,Erzincan,10,1878
312,2018-11-09,Uşak,7,1735
313,2018-11-10,Ardahan,2,1532
314,2018-11-11,Bayburt,1,1982
315,2018-11-12,Denizli,11,1156
316,2018-11-13,Ordu,7,1010
317,2018-11-14,Bolu,7,1129
318,2018-11-15,Eskişehir,3,1118
319,2018-11-16,Denizli,3,1076
320,2018-11-17,Niğde,15,1088
321,2018-11-18,Mardin,16,1376
322,2018-11-19,Aydın,17,1209
323,2018-11-20,Tunceli,14,1533
324,2018-11-21,Erzurum,17,1245
325,2018-11-22,Afyon,2,1031
326,2018-11-23,Osmaniye,13,1705
327,2018-11-24,Bitlis,8,1507
328,2018-11-25,Çankırı,3,1926
329,2018-11-26,Sinop,11,1419
330,2018-11-27,Erzurum,5,1339
331,2018-11-28,Yalova,12,1652
332,2018-11-29,Kastamonu,16,1040
333,2018-11-30,Diyarbakır,10,1741
334,2018-12-01,Yalova,8,1782
335,2018-12-02,Kars,2,1601
336,2018-12-03,Karabük,12,1153
337,2018-12-04,Kütahya,16,1736
338,2018-12-05,Hatay,11,1362
339,2018-12-06,Tekirdağ,14,1104
340,2018-12-07,İçel (Mersin),3,1218
341,2018-12-08,Siirt,2,1165
342,2018-12-09,Iğdır,8,1154
343,2018-12-10,Hakkari,4,1422
344,2018-12-11,Diyarbakır,9,1630
345,2018-12-12,Artvin,16,1982
346,2018-12-13,Bitlis,2,1754
347,2018-12-14,Balıkesir,7,1762
348,2018-12-15,Muş,7,1508
349,2018-12-16,Gaziantep,12,1883
350,2018-12-17,Kahramanmaraş,16,1864
351,2018-12-18,Adana,13,1561
352,2018-12-19,Yozgat,6,1716
353,2018-12-20,Afyon,8,1381
354,2018-12-21,Tunceli,6,1804
355,2018-12-22,Amasya,1,1145
356,2018-12-23,Erzurum,5,1871
357,2018-12-24,Zonguldak,1,1185
358,2018-12-25,Şanlıurfa,10,1890
359,2018-12-26,Elazığ,12,1075
360,2018-12-27,Karabük,1,1643
361,2018-12-28,Nevşehir,8,1311
362,2018-12-29,Uşak,9,1276
363,2018-12-30,Burdur,9,1810
